('F:\\DEV\\CardsWar\\build\\game_view\\PKG-00.pkg',
 {'BINARY': 1,
  'DATA': 1,
  'EXECUTABLE': 1,
  'EXTENSION': 1,
  'PYMODULE': 1,
  'PYSOURCE': 1,
  'PYZ': 0},
 [('PYZ-00.pyz', 'F:\\DEV\\CardsWar\\build\\game_view\\PYZ-00.pyz', 'PYZ'),
  ('struct',
   'C:\\Users\\dylan\\AppData\\Local\\Programs\\Python\\Python37\\lib\\struct.pyo',
   'PYMODULE'),
  ('pyimod01_os_path',
   'f:\\dev\\cardswar\\venv\\lib\\site-packages\\PyInstaller\\loader\\pyimod01_os_path.pyc',
   'PYMODULE'),
  ('pyimod02_archive',
   'f:\\dev\\cardswar\\venv\\lib\\site-packages\\PyInstaller\\loader\\pyimod02_archive.pyc',
   'PYMODULE'),
  ('pyimod03_importers',
   'f:\\dev\\cardswar\\venv\\lib\\site-packages\\PyInstaller\\loader\\pyimod03_importers.pyc',
   'PYMODULE'),
  ('pyiboot01_bootstrap',
   'f:\\dev\\cardswar\\venv\\lib\\site-packages\\PyInstaller\\loader\\pyiboot01_bootstrap.py',
   'PYSOURCE'),
  ('pyi_rth__tkinter',
   'f:\\dev\\cardswar\\venv\\lib\\site-packages\\PyInstaller\\hooks\\rthooks\\pyi_rth__tkinter.py',
   'PYSOURCE'),
  ('game_view', 'F:\\DEV\\CardsWar\\view\\game_view.py', 'PYSOURCE'),
  ('game_view.exe.manifest',
   'F:\\DEV\\CardsWar\\build\\game_view\\game_view.exe.manifest',
   'BINARY')],
 True,
 False,
 False,
 [])
